Final project
…
From the figure, we can see that the economic vitality of cities in China has not changed much and is still at a low level. However, the cities represented by Shanghai and Beijing are developing rapidly and their development level is significantly higher than the average level.

tidy(recipe_new, number = 1, type = "coef") 

# A tibble: 81 × 4
   terms   value component id       
   <chr>   <dbl> <chr>     <chr>    
 1 x1     0.355  PC1       pca_XGxiE
 2 x2    -0.0972 PC1       pca_XGxiE
 3 x3     0.388  PC1       pca_XGxiE
 4 x4     0.391  PC1       pca_XGxiE
 5 x5     0.369  PC1       pca_XGxiE
 6 x6     0.331  PC1       pca_XGxiE
 7 x7     0.283  PC1       pca_XGxiE
 8 x8     0.417  PC1       pca_XGxiE
 9 x9     0.250  PC1       pca_XGxiE
10 x1    -0.341  PC2       pca_XGxiE
# … with 71 more rows

tidy(recipe_new, number = 1, type = "variance")

# A tibble: 36 × 4
   terms                value component id       
   <chr>                <dbl>     <int> <chr>    
 1 variance            4.76           1 pca_XGxiE
 2 variance            1.37           2 pca_XGxiE
 3 variance            0.899          3 pca_XGxiE
 4 variance            0.732          4 pca_XGxiE
 5 variance            0.554          5 pca_XGxiE
 6 variance            0.270          6 pca_XGxiE
 7 variance            0.224          7 pca_XGxiE
 8 variance            0.145          8 pca_XGxiE
 9 variance            0.0514         9 pca_XGxiE
10 cumulative variance 4.76           1 pca_XGxiE
# … with 26 more rows
…
